<?xml version="1.0"?>
<font>
  <info face="CompassGold" size="32" bold="0" italic="0" charset="" unicode="1" stretchH="100" smooth="1" aa="1" padding="0,0,0,0" spacing="1,1" outline="0"/>
  <common lineHeight="32" base="26" scaleW="256" scaleH="256" pages="1" packed="0" alphaChnl="1" redChnl="0" greenChnl="0" blueChnl="0"/>
  <pages>
    <page id="0" file="compassgold_0.png" />
  </pages>
  <chars count="165">
    <char id="32" x="252" y="2" width="3" height="1" xoffset="-1" yoffset="31" xadvance="11" page="0" chnl="15" />
    <char id="33" x="74" y="54" width="4" height="23" xoffset="0" yoffset="3" xadvance="6" page="0" chnl="15" />
    <char id="34" x="169" y="168" width="11" height="8" xoffset="0" yoffset="3" xadvance="13" page="0" chnl="15" />
    <char id="35" x="163" y="154" width="15" height="13" xoffset="0" yoffset="11" xadvance="17" page="0" chnl="15" />
    <char id="36" x="174" y="27" width="15" height="23" xoffset="0" yoffset="5" xadvance="17" page="0" chnl="15" />
    <char id="37" x="103" y="156" width="15" height="15" xoffset="0" yoffset="9" xadvance="17" page="0" chnl="15" />
    <char id="38" x="65" y="158" width="13" height="17" xoffset="0" yoffset="9" xadvance="15" page="0" chnl="15" />
    <char id="39" x="205" y="165" width="6" height="6" xoffset="0" yoffset="5" xadvance="9" page="0" chnl="15" />
    <char id="40" x="24" y="54" width="9" height="23" xoffset="0" yoffset="5" xadvance="11" page="0" chnl="15" />
    <char id="41" x="44" y="54" width="9" height="23" xoffset="0" yoffset="5" xadvance="11" page="0" chnl="15" />
    <char id="42" x="139" y="170" width="9" height="9" xoffset="0" yoffset="13" xadvance="11" page="0" chnl="15" />
    <char id="43" x="159" y="168" width="9" height="9" xoffset="0" yoffset="13" xadvance="11" page="0" chnl="15" />
    <char id="44" x="219" y="165" width="6" height="6" xoffset="0" yoffset="24" xadvance="9" page="0" chnl="15" />
    <char id="45" x="226" y="165" width="9" height="5" xoffset="0" yoffset="15" xadvance="11" page="0" chnl="15" />
    <char id="46" x="142" y="51" width="4" height="2" xoffset="0" yoffset="24" xadvance="6" page="0" chnl="15" />
    <char id="47" x="214" y="131" width="9" height="19" xoffset="0" yoffset="7" xadvance="11" page="0" chnl="15" />
    <char id="48" x="28" y="118" width="13" height="19" xoffset="0" yoffset="7" xadvance="15" page="0" chnl="15" />
    <char id="49" x="42" y="118" width="13" height="19" xoffset="0" yoffset="7" xadvance="15" page="0" chnl="15" />
    <char id="50" x="56" y="118" width="13" height="19" xoffset="0" yoffset="7" xadvance="15" page="0" chnl="15" />
    <char id="51" x="70" y="118" width="13" height="19" xoffset="0" yoffset="7" xadvance="15" page="0" chnl="15" />
    <char id="52" x="0" y="118" width="13" height="19" xoffset="0" yoffset="7" xadvance="15" page="0" chnl="15" />
    <char id="53" x="98" y="116" width="13" height="19" xoffset="0" yoffset="7" xadvance="15" page="0" chnl="15" />
    <char id="54" x="182" y="111" width="13" height="19" xoffset="0" yoffset="7" xadvance="15" page="0" chnl="15" />
    <char id="55" x="238" y="111" width="13" height="19" xoffset="0" yoffset="7" xadvance="15" page="0" chnl="15" />
    <char id="56" x="140" y="134" width="13" height="19" xoffset="0" yoffset="7" xadvance="15" page="0" chnl="15" />
    <char id="57" x="154" y="134" width="13" height="19" xoffset="0" yoffset="7" xadvance="15" page="0" chnl="15" />
    <char id="58" x="251" y="151" width="4" height="7" xoffset="0" yoffset="15" xadvance="6" page="0" chnl="15" />
    <char id="59" x="116" y="172" width="6" height="10" xoffset="0" yoffset="20" xadvance="9" page="0" chnl="15" />
    <char id="60" x="96" y="176" width="9" height="13" xoffset="0" yoffset="11" xadvance="11" page="0" chnl="15" />
    <char id="61" x="149" y="168" width="9" height="9" xoffset="0" yoffset="13" xadvance="11" page="0" chnl="15" />
    <char id="62" x="106" y="172" width="9" height="13" xoffset="0" yoffset="11" xadvance="11" page="0" chnl="15" />
    <char id="63" x="0" y="54" width="11" height="23" xoffset="0" yoffset="3" xadvance="13" page="0" chnl="15" />
    <char id="64" x="184" y="51" width="23" height="19" xoffset="0" yoffset="9" xadvance="26" page="0" chnl="15" />
    <char id="65" x="38" y="78" width="17" height="19" xoffset="0" yoffset="7" xadvance="19" page="0" chnl="15" />
    <char id="66" x="224" y="71" width="15" height="19" xoffset="0" yoffset="7" xadvance="17" page="0" chnl="15" />
    <char id="67" x="144" y="94" width="13" height="19" xoffset="0" yoffset="7" xadvance="15" page="0" chnl="15" />
    <char id="68" x="0" y="98" width="15" height="19" xoffset="0" yoffset="7" xadvance="17" page="0" chnl="15" />
    <char id="69" x="176" y="71" width="15" height="19" xoffset="0" yoffset="7" xadvance="17" page="0" chnl="15" />
    <char id="70" x="32" y="98" width="15" height="19" xoffset="0" yoffset="7" xadvance="17" page="0" chnl="15" />
    <char id="71" x="158" y="94" width="13" height="19" xoffset="0" yoffset="7" xadvance="15" page="0" chnl="15" />
    <char id="72" x="56" y="78" width="17" height="19" xoffset="0" yoffset="7" xadvance="19" page="0" chnl="15" />
    <char id="73" x="194" y="131" width="9" height="19" xoffset="0" yoffset="7" xadvance="11" page="0" chnl="15" />
    <char id="74" x="172" y="91" width="13" height="19" xoffset="0" yoffset="7" xadvance="15" page="0" chnl="15" />
    <char id="75" x="20" y="78" width="17" height="19" xoffset="0" yoffset="7" xadvance="19" page="0" chnl="15" />
    <char id="76" x="160" y="71" width="15" height="19" xoffset="0" yoffset="7" xadvance="17" page="0" chnl="15" />
    <char id="77" x="230" y="51" width="19" height="19" xoffset="0" yoffset="7" xadvance="21" page="0" chnl="15" />
    <char id="78" x="0" y="78" width="19" height="19" xoffset="0" yoffset="7" xadvance="21" page="0" chnl="15" />
    <char id="79" x="192" y="71" width="15" height="19" xoffset="0" yoffset="7" xadvance="17" page="0" chnl="15" />
    <char id="80" x="208" y="71" width="15" height="19" xoffset="0" yoffset="7" xadvance="17" page="0" chnl="15" />
    <char id="81" x="142" y="27" width="15" height="23" xoffset="0" yoffset="7" xadvance="17" page="0" chnl="15" />
    <char id="82" x="92" y="76" width="17" height="19" xoffset="0" yoffset="7" xadvance="19" page="0" chnl="15" />
    <char id="83" x="186" y="91" width="13" height="19" xoffset="0" yoffset="7" xadvance="15" page="0" chnl="15" />
    <char id="84" x="74" y="78" width="17" height="19" xoffset="0" yoffset="7" xadvance="19" page="0" chnl="15" />
    <char id="85" x="48" y="98" width="15" height="19" xoffset="0" yoffset="7" xadvance="17" page="0" chnl="15" />
    <char id="86" x="200" y="91" width="13" height="19" xoffset="0" yoffset="7" xadvance="15" page="0" chnl="15" />
    <char id="87" x="208" y="51" width="21" height="19" xoffset="0" yoffset="7" xadvance="23" page="0" chnl="15" />
    <char id="88" x="214" y="91" width="13" height="19" xoffset="0" yoffset="7" xadvance="15" page="0" chnl="15" />
    <char id="89" x="110" y="76" width="17" height="19" xoffset="0" yoffset="7" xadvance="19" page="0" chnl="15" />
    <char id="90" x="228" y="91" width="13" height="19" xoffset="0" yoffset="7" xadvance="15" page="0" chnl="15" />
    <char id="91" x="246" y="27" width="9" height="23" xoffset="0" yoffset="5" xadvance="11" page="0" chnl="15" />
    <char id="92" x="20" y="158" width="9" height="19" xoffset="0" yoffset="7" xadvance="11" page="0" chnl="15" />
    <char id="93" x="34" y="54" width="9" height="23" xoffset="0" yoffset="5" xadvance="11" page="0" chnl="15" />
    <char id="94" x="181" y="168" width="11" height="8" xoffset="0" yoffset="3" xadvance="13" page="0" chnl="15" />
    <char id="95" x="236" y="165" width="9" height="4" xoffset="0" yoffset="24" xadvance="11" page="0" chnl="15" />
    <char id="96" x="212" y="165" width="6" height="6" xoffset="0" yoffset="5" xadvance="9" page="0" chnl="15" />
    <char id="97" x="0" y="178" width="13" height="13" xoffset="0" yoffset="13" xadvance="15" page="0" chnl="15" />
    <char id="98" x="128" y="94" width="15" height="19" xoffset="0" yoffset="7" xadvance="17" page="0" chnl="15" />
    <char id="99" x="42" y="176" width="13" height="13" xoffset="0" yoffset="13" xadvance="15" page="0" chnl="15" />
    <char id="100" x="96" y="96" width="15" height="19" xoffset="0" yoffset="7" xadvance="17" page="0" chnl="15" />
    <char id="101" x="28" y="178" width="13" height="13" xoffset="0" yoffset="13" xadvance="15" page="0" chnl="15" />
    <char id="102" x="0" y="158" width="9" height="19" xoffset="0" yoffset="7" xadvance="11" page="0" chnl="15" />
    <char id="103" x="242" y="91" width="13" height="19" xoffset="0" yoffset="13" xadvance="15" page="0" chnl="15" />
    <char id="104" x="64" y="98" width="15" height="19" xoffset="0" yoffset="7" xadvance="17" page="0" chnl="15" />
    <char id="105" x="93" y="158" width="9" height="17" xoffset="0" yoffset="9" xadvance="11" page="0" chnl="15" />
    <char id="106" x="182" y="131" width="11" height="19" xoffset="0" yoffset="9" xadvance="13" page="0" chnl="15" />
    <char id="107" x="16" y="98" width="15" height="19" xoffset="0" yoffset="7" xadvance="17" page="0" chnl="15" />
    <char id="108" x="30" y="158" width="6" height="19" xoffset="0" yoffset="7" xadvance="9" page="0" chnl="15" />
    <char id="109" x="179" y="154" width="15" height="13" xoffset="0" yoffset="13" xadvance="17" page="0" chnl="15" />
    <char id="110" x="237" y="151" width="13" height="13" xoffset="0" yoffset="13" xadvance="15" page="0" chnl="15" />
    <char id="111" x="223" y="151" width="13" height="13" xoffset="0" yoffset="13" xadvance="15" page="0" chnl="15" />
    <char id="112" x="240" y="71" width="15" height="19" xoffset="0" yoffset="13" xadvance="17" page="0" chnl="15" />
    <char id="113" x="80" y="98" width="15" height="19" xoffset="0" yoffset="13" xadvance="17" page="0" chnl="15" />
    <char id="114" x="14" y="178" width="13" height="13" xoffset="0" yoffset="13" xadvance="15" page="0" chnl="15" />
    <char id="115" x="84" y="176" width="11" height="13" xoffset="0" yoffset="13" xadvance="13" page="0" chnl="15" />
    <char id="116" x="10" y="158" width="9" height="19" xoffset="0" yoffset="7" xadvance="11" page="0" chnl="15" />
    <char id="117" x="70" y="176" width="13" height="13" xoffset="0" yoffset="13" xadvance="15" page="0" chnl="15" />
    <char id="118" x="56" y="176" width="13" height="13" xoffset="0" yoffset="13" xadvance="15" page="0" chnl="15" />
    <char id="119" x="119" y="156" width="21" height="13" xoffset="0" yoffset="13" xadvance="23" page="0" chnl="15" />
    <char id="120" x="195" y="151" width="13" height="13" xoffset="0" yoffset="13" xadvance="15" page="0" chnl="15" />
    <char id="121" x="51" y="158" width="13" height="17" xoffset="0" yoffset="13" xadvance="15" page="0" chnl="15" />
    <char id="122" x="209" y="151" width="13" height="13" xoffset="0" yoffset="13" xadvance="15" page="0" chnl="15" />
    <char id="123" x="64" y="54" width="9" height="23" xoffset="0" yoffset="5" xadvance="11" page="0" chnl="15" />
    <char id="124" x="250" y="51" width="4" height="19" xoffset="0" yoffset="7" xadvance="6" page="0" chnl="15" />
    <char id="125" x="54" y="54" width="9" height="23" xoffset="0" yoffset="5" xadvance="11" page="0" chnl="15" />
    <char id="126" x="123" y="170" width="15" height="9" xoffset="0" yoffset="15" xadvance="17" page="0" chnl="15" />
    <char id="160" x="252" y="0" width="3" height="1" xoffset="-1" yoffset="31" xadvance="11" page="0" chnl="15" />
    <char id="161" x="79" y="54" width="4" height="23" xoffset="0" yoffset="9" xadvance="6" page="0" chnl="15" />
    <char id="162" x="14" y="118" width="13" height="19" xoffset="0" yoffset="7" xadvance="15" page="0" chnl="15" />
    <char id="163" x="144" y="74" width="15" height="19" xoffset="0" yoffset="7" xadvance="17" page="0" chnl="15" />
    <char id="169" x="112" y="54" width="23" height="19" xoffset="0" yoffset="7" xadvance="26" page="0" chnl="15" />
    <char id="174" x="160" y="51" width="23" height="19" xoffset="0" yoffset="7" xadvance="26" page="0" chnl="15" />
    <char id="176" x="193" y="168" width="11" height="8" xoffset="0" yoffset="5" xadvance="13" page="0" chnl="15" />
    <char id="191" x="12" y="54" width="11" height="23" xoffset="0" yoffset="9" xadvance="13" page="0" chnl="15" />
    <char id="192" x="38" y="0" width="17" height="26" xoffset="0" yoffset="0" xadvance="19" page="0" chnl="15" />
    <char id="193" x="128" y="0" width="17" height="26" xoffset="0" yoffset="0" xadvance="19" page="0" chnl="15" />
    <char id="194" x="20" y="0" width="17" height="26" xoffset="0" yoffset="0" xadvance="19" page="0" chnl="15" />
    <char id="195" x="74" y="0" width="17" height="26" xoffset="0" yoffset="0" xadvance="19" page="0" chnl="15" />
    <char id="196" x="92" y="0" width="17" height="26" xoffset="0" yoffset="0" xadvance="19" page="0" chnl="15" />
    <char id="197" x="56" y="0" width="17" height="26" xoffset="0" yoffset="0" xadvance="19" page="0" chnl="15" />
    <char id="198" x="136" y="54" width="23" height="19" xoffset="0" yoffset="7" xadvance="26" page="0" chnl="15" />
    <char id="199" x="190" y="27" width="13" height="23" xoffset="0" yoffset="7" xadvance="15" page="0" chnl="15" />
    <char id="200" x="0" y="27" width="15" height="26" xoffset="0" yoffset="0" xadvance="17" page="0" chnl="15" />
    <char id="201" x="96" y="27" width="15" height="26" xoffset="0" yoffset="0" xadvance="17" page="0" chnl="15" />
    <char id="202" x="80" y="27" width="15" height="26" xoffset="0" yoffset="0" xadvance="17" page="0" chnl="15" />
    <char id="203" x="64" y="27" width="15" height="26" xoffset="0" yoffset="0" xadvance="17" page="0" chnl="15" />
    <char id="204" x="132" y="27" width="9" height="26" xoffset="0" yoffset="0" xadvance="11" page="0" chnl="15" />
    <char id="205" x="122" y="27" width="9" height="26" xoffset="0" yoffset="0" xadvance="11" page="0" chnl="15" />
    <char id="206" x="112" y="27" width="9" height="26" xoffset="0" yoffset="0" xadvance="11" page="0" chnl="15" />
    <char id="207" x="242" y="0" width="9" height="26" xoffset="0" yoffset="0" xadvance="11" page="0" chnl="15" />
    <char id="208" x="128" y="74" width="15" height="19" xoffset="0" yoffset="7" xadvance="17" page="0" chnl="15" />
    <char id="209" x="0" y="0" width="19" height="26" xoffset="0" yoffset="0" xadvance="21" page="0" chnl="15" />
    <char id="210" x="226" y="0" width="15" height="26" xoffset="0" yoffset="0" xadvance="17" page="0" chnl="15" />
    <char id="211" x="210" y="0" width="15" height="26" xoffset="0" yoffset="0" xadvance="17" page="0" chnl="15" />
    <char id="212" x="194" y="0" width="15" height="26" xoffset="0" yoffset="0" xadvance="17" page="0" chnl="15" />
    <char id="213" x="178" y="0" width="15" height="26" xoffset="0" yoffset="0" xadvance="17" page="0" chnl="15" />
    <char id="214" x="162" y="0" width="15" height="26" xoffset="0" yoffset="0" xadvance="17" page="0" chnl="15" />
    <char id="216" x="158" y="27" width="15" height="23" xoffset="0" yoffset="5" xadvance="17" page="0" chnl="15" />
    <char id="217" x="146" y="0" width="15" height="26" xoffset="0" yoffset="0" xadvance="17" page="0" chnl="15" />
    <char id="218" x="32" y="27" width="15" height="26" xoffset="0" yoffset="0" xadvance="17" page="0" chnl="15" />
    <char id="219" x="16" y="27" width="15" height="26" xoffset="0" yoffset="0" xadvance="17" page="0" chnl="15" />
    <char id="220" x="48" y="27" width="15" height="26" xoffset="0" yoffset="0" xadvance="17" page="0" chnl="15" />
    <char id="221" x="110" y="0" width="17" height="26" xoffset="0" yoffset="0" xadvance="19" page="0" chnl="15" />
    <char id="222" x="84" y="118" width="13" height="19" xoffset="0" yoffset="7" xadvance="15" page="0" chnl="15" />
    <char id="223" x="112" y="96" width="15" height="19" xoffset="0" yoffset="7" xadvance="17" page="0" chnl="15" />
    <char id="224" x="112" y="116" width="13" height="19" xoffset="0" yoffset="7" xadvance="15" page="0" chnl="15" />
    <char id="225" x="126" y="116" width="13" height="19" xoffset="0" yoffset="7" xadvance="15" page="0" chnl="15" />
    <char id="226" x="140" y="114" width="13" height="19" xoffset="0" yoffset="7" xadvance="15" page="0" chnl="15" />
    <char id="227" x="154" y="114" width="13" height="19" xoffset="0" yoffset="7" xadvance="15" page="0" chnl="15" />
    <char id="228" x="168" y="114" width="13" height="19" xoffset="0" yoffset="7" xadvance="15" page="0" chnl="15" />
    <char id="229" x="98" y="54" width="13" height="21" xoffset="0" yoffset="5" xadvance="15" page="0" chnl="15" />
    <char id="230" x="141" y="154" width="21" height="13" xoffset="0" yoffset="13" xadvance="23" page="0" chnl="15" />
    <char id="231" x="79" y="158" width="13" height="17" xoffset="0" yoffset="13" xadvance="15" page="0" chnl="15" />
    <char id="232" x="196" y="111" width="13" height="19" xoffset="0" yoffset="7" xadvance="15" page="0" chnl="15" />
    <char id="233" x="210" y="111" width="13" height="19" xoffset="0" yoffset="7" xadvance="15" page="0" chnl="15" />
    <char id="234" x="168" y="134" width="13" height="19" xoffset="0" yoffset="7" xadvance="15" page="0" chnl="15" />
    <char id="235" x="224" y="111" width="13" height="19" xoffset="0" yoffset="7" xadvance="15" page="0" chnl="15" />
    <char id="236" x="244" y="131" width="9" height="19" xoffset="0" yoffset="7" xadvance="11" page="0" chnl="15" />
    <char id="237" x="234" y="131" width="9" height="19" xoffset="0" yoffset="7" xadvance="11" page="0" chnl="15" />
    <char id="238" x="224" y="131" width="9" height="19" xoffset="0" yoffset="7" xadvance="11" page="0" chnl="15" />
    <char id="239" x="204" y="131" width="9" height="19" xoffset="0" yoffset="7" xadvance="11" page="0" chnl="15" />
    <char id="240" x="84" y="54" width="13" height="21" xoffset="0" yoffset="5" xadvance="15" page="0" chnl="15" />
    <char id="241" x="0" y="138" width="13" height="19" xoffset="0" yoffset="7" xadvance="15" page="0" chnl="15" />
    <char id="242" x="14" y="138" width="13" height="19" xoffset="0" yoffset="7" xadvance="15" page="0" chnl="15" />
    <char id="243" x="28" y="138" width="13" height="19" xoffset="0" yoffset="7" xadvance="15" page="0" chnl="15" />
    <char id="244" x="42" y="138" width="13" height="19" xoffset="0" yoffset="7" xadvance="15" page="0" chnl="15" />
    <char id="245" x="56" y="138" width="13" height="19" xoffset="0" yoffset="7" xadvance="15" page="0" chnl="15" />
    <char id="246" x="70" y="138" width="13" height="19" xoffset="0" yoffset="7" xadvance="15" page="0" chnl="15" />
    <char id="248" x="37" y="158" width="13" height="17" xoffset="0" yoffset="11" xadvance="15" page="0" chnl="15" />
    <char id="249" x="84" y="138" width="13" height="19" xoffset="0" yoffset="7" xadvance="15" page="0" chnl="15" />
    <char id="250" x="98" y="136" width="13" height="19" xoffset="0" yoffset="7" xadvance="15" page="0" chnl="15" />
    <char id="251" x="112" y="136" width="13" height="19" xoffset="0" yoffset="7" xadvance="15" page="0" chnl="15" />
    <char id="252" x="126" y="136" width="13" height="19" xoffset="0" yoffset="7" xadvance="15" page="0" chnl="15" />
    <char id="253" x="232" y="27" width="13" height="23" xoffset="0" yoffset="7" xadvance="15" page="0" chnl="15" />
    <char id="254" x="204" y="27" width="13" height="23" xoffset="0" yoffset="9" xadvance="15" page="0" chnl="15" />
    <char id="255" x="218" y="27" width="13" height="23" xoffset="0" yoffset="7" xadvance="15" page="0" chnl="15" />
  </chars>
</font>
